{
	"development" : { 
		"accessKeyId": "AKIAJMPNFPU3EXVP5DYA", 
		"secretAccessKey": "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", 
		"region": "ap-southeast-1",
		"bucket": "roomme-dev",
		"cloudfront" : "http://roomme-dev.s3-ap-southeast-1.amazonaws.com/"
	}, 
	"production" : { 
		"accessKeyId": "AKIAJMPNFPU3EXVP5DYA", 
		"secretAccessKey": "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", 
		"region": "ap-southeast-1",
		"bucket": "roomme-dev",
		"cloudfront" : "http://roomme-dev.s3-ap-southeast-1.amazonaws.com/"
	}
}