{
	"development": {
		"publicKey" : "xnd_public_development_NIyIf+lw0rOsk8RsLbEfTGGTNdDwpdR1xHXk8Bpj+2zV8bakCA8=",
		"secretKey" : "xnd_development_NYyBfOQi0OGoksRufbZPGDTGMNXwp4N4lH20+R1r/mXR8LagBAdwjw==",
		"validationToken" : "NDc1NTg2NWQ3NjM3MzVjMjNmZjNjNmM0NDlkMTQ4MzA2OTI4MzQ0OQ=="
	},
	"production" : {
		"publicKey" : "xnd_public_production_P4iJfOQi0OGoksRufbZPGDTGMNXwp4N4lH20+R1r/mXR8LeoDwJyjg==",
		"secretKey" : "xnd_production_NI+HfOQi0OGoksRufbZPGDTGMNXwp4N4lH20+R1r/mXR8LagBAdxgw==",
		"validationToken" : "MjE4NTg2NWQ3NjM3MzVjMjNmZjNjNmM0NDlkMTQ4MzA2OTI4MzQ1MA=="
	}
}